<svg xmlns="http://www.w3.org/2000/svg" viewBox="1211 1862.586 15 58.614">
  <defs>
    <style>
      .cls-1 {
        fill: #fff;
        fill-rule: evenodd;
      }
    </style>
  </defs>
  <path id="arrow_bot" data-name="arrow bot" class="cls-1" d="M-40,12.5a.709.709,0,0,1,.2-.486L-33.056,5.2a.676.676,0,0,1,.963,0,.692.692,0,0,1,0,.973l-5.582,5.638H17.932a.688.688,0,0,1,0,1.376H-37.674l5.581,5.638a.693.693,0,0,1,0,.973.677.677,0,0,1-.963,0L-39.8,12.987A.7.7,0,0,1-40,12.5Z" transform="translate(1206 1881.2) rotate(-90)"/>
</svg>
